…
## `tidyquant` package
We could use `tidyquant::tq_get()` and for St. Louis Fed (FRED database), `tidyquant` uses a wrapper for `quantmod` package. The code for **homeowner vacancy rate (quarterly)** on FRED database is `"RHVRUSQ156N"`.

{% highlight r %}
suppressMessages(library("tidyquant"))
# FRED code for Homeowner Vacancy Rate for the US: "RHVRUSQ156N"
homeowner_vacancy_rate <- "RHVRUSQ156N"
housing <- tq_get(homeowner_vacancy_rate, get = "economic.data")
housing
{% endhighlight %}



{% highlight text %}
## # A tibble: 43 x 2
##    date       price
##    <date>     <dbl>
##  1 2007-01-01  2.80
##  2 2007-04-01  2.60
##  3 2007-07-01  2.70
##  4 2007-10-01  2.80
##  5 2008-01-01  2.90
##  6 2008-04-01  2.80
##  7 2008-07-01  2.80
##  8 2008-10-01  2.90
##  9 2009-01-01  2.70
## 10 2009-04-01  2.50
## # ... with 33 more rows
{% endhighlight %}

{% highlight r %}
housing
{% endhighlight %}



{% highlight text %}
## # A tibble: 43 x 2
##    date       price
##    <date>     <dbl>
##  1 2007-01-01  2.80
##  2 2007-04-01  2.60
##  3 2007-07-01  2.70
##  4 2007-10-01  2.80
##  5 2008-01-01  2.90
##  6 2008-04-01  2.80
##  7 2008-07-01  2.80
##  8 2008-10-01  2.90
##  9 2009-01-01  2.70
## 10 2009-04-01  2.50
## # ... with 33 more rows
…
{% highlight r %}
rental_vacancy_rate
{% endhighlight %}



{% highlight text %}
## # A tibble: 66 x 2
##    date       price
##    <date>     <dbl>
##  1 2001-01-01  8.20
##  2 2001-04-01  8.30
##  3 2001-07-01  8.40
##  4 2001-10-01  8.80
##  5 2002-01-01  9.10
##  6 2002-04-01  8.40
##  7 2002-07-01  9.00
##  8 2002-10-01  9.30
##  9 2003-01-01  9.40
## 10 2003-04-01  9.60
## # ... with 56 more rows
…
{% highlight r %}
vacancy_rate
{% endhighlight %}



{% highlight text %}
## # A tibble: 132 x 3
##    symbol      date       price
##    <chr>       <date>     <dbl>
##  1 RHVRUSQ156N 2001-01-01  1.50
##  2 RHVRUSQ156N 2001-04-01  1.80
##  3 RHVRUSQ156N 2001-07-01  1.90
##  4 RHVRUSQ156N 2001-10-01  1.80
##  5 RHVRUSQ156N 2002-01-01  1.70
##  6 RHVRUSQ156N 2002-04-01  1.70
##  7 RHVRUSQ156N 2002-07-01  1.70
##  8 RHVRUSQ156N 2002-10-01  1.70
##  9 RHVRUSQ156N 2003-01-01  1.70
## 10 RHVRUSQ156N 2003-04-01  1.70
## # ... with 122 more rows
…
